{
    "jet_collection": "AntiKt4EMPFlowJets",
    "calibration": {
    },
    "selection": {
        "minimum_jet_pt": 20000,
        "maximum_jet_absolute_eta": 2.5,
        "dec_jvt": true,
        "cut_jvt": true
    },
    "vertex_collection": "PrimaryVertices",
    "dl2_configs": [],
    "variables": {
        "btagging" : {
            "chars" : [
                "IP2D_isDefaults",
                "IP3D_isDefaults",
                "JetFitter_isDefaults",
                "SV1_isDefaults",
                "JetFitterSecondaryVertex_isDefaults"
            ],
            "floats" : [
                "pt_btagJes",
                "eta_btagJes",
                "absEta_btagJes",
                "JetFitter_energyFraction",
                "JetFitter_mass",
                "JetFitter_significance3d",
                "JetFitter_deltaphi",
                "JetFitter_deltaeta",
                "JetFitter_massUncorr",
                "JetFitter_dRFlightDir",
                "SV1_masssvx",
                "SV1_efracsvx",
                "SV1_significance3d",
                "SV1_dstToMatLay",
                "SV1_deltaR",
                "SV1_Lxy",
                "SV1_L3d",
                "JetFitter_deltaR",
                "JetFitterSecondaryVertex_displacement3d",
                "JetFitterSecondaryVertex_displacement2d",
                "JetFitterSecondaryVertex_mass",
                "JetFitterSecondaryVertex_energy",
                "JetFitterSecondaryVertex_energyFraction",
                "JetFitterSecondaryVertex_minimumTrackRelativeEta",
                "JetFitterSecondaryVertex_maximumTrackRelativeEta",
                "JetFitterSecondaryVertex_averageTrackRelativeEta",
                "JetFitterSecondaryVertex_maximumAllJetTrackRelativeEta",
                "JetFitterSecondaryVertex_minimumAllJetTrackRelativeEta",
                "JetFitterSecondaryVertex_averageAllJetTrackRelativeEta"
            ],
            "ints" : [
                "JetFitter_nVTX",
                "JetFitter_nSingleTracks",
                "JetFitter_nTracksAtVtx",
                "JetFitter_N2Tpair",
                "SV1_N2Tpair",
                "SV1_NGTinSvx",
                "JetFitterSecondaryVertex_nTracks",
                "IP3D_nTrks"
            ]
        },
        "jet" : {
            "ints" : [
                "jetPtRank"
            ],
            "floats" : [
                "NNJvt",
                "pt",
                "eta",
                "mass",
                "energy"
            ]
        },
        "event" : {
            "customs" : [
                "eventNumber",
                "averageInteractionsPerCrossing",
                "actualInteractionsPerCrossing",
                "nPrimaryVertices"
            ]
        },
        "default_mapping": {
            "file": "fragments/default-mapping.json"
        }
    },
    "tracks": [],
    "truths": [],
    "decorate": {
        "jet_aug": false,
        "btag_jes": true
    },
    "btagging_link": "btaggingLink"
}
